    4

N     -0.4867240526   0.0000000000   0.0000000000
F     0.1195832809  -1.2258552840   0.0000000000
F     0.1195821976   0.6129276420   1.0616220095
F     0.1195821976   0.6129276420  -1.0616220095
