**DIRAC
.TITLE
NF3
.PROPERTIES 
**GENERAL
.RKBIMP
**HAMILTONIAN
.URKBAL
.GO ANG ! gauge origin in Angstrom
0.0 0.0 10.0
**INTEGRALS
*READIN
.UNCONT
**WAVE FUNCTIONS
.SCF
*SCF
.CLOSED SHELL
34
**PROPERTIES 
.MAGNET
*NMR
*END OF
