**DIRAC
.TITLE
  H2O
.WAVE FUNCTION
**MOLECULE
*BASIS
.DEFAULT
dyall.ae4z
**GENERAL
.PCMOUT
**HAMILTONIAN
.X2C
**INTEGRALS
*READIN
.UNCONTRACT
**WAVE FUNCTION
.SCF
.RELCCSD
**SCF
.PRINT
1
.CLOSED SHELL
10
.EVCCNV
1.0D-8 1.0D-6
.MAXITR
1
**MOLTRA
# freeze O:1s(2)
.ACTIVE
energy -10.00  50.00 0.02
**RELCCSD
.ENERGY
.NELEC
4 4
*CCENER
.NTOL
6
*END OF
