  ** interface to 32-bit integer MPI enabled **

DIRAC serial starts by allocating 32000000 words (    244.14 MB -      0.238 GB) of memory    out of the allowed maximum of 64000000 words (    488.28 MB -      0.477 GB)

Note: maximum allocatable memory for serial run can be set by pam --aw/--ag

 *******************************************************************************
 *                                                                             *
 *                                O U T P U T                                  *
 *                                   from                                      *
 *                                                                             *
 *                   @@@@@    @@   @@@@@     @@@@     @@@@@                    *
 *                   @@  @@        @@  @@   @@  @@   @@                        *
 *                   @@  @@   @@   @@@@@    @@@@@@   @@                        *
 *                   @@  @@   @@   @@ @@    @@  @@   @@                        *
 *                   @@@@@    @@   @@  @@   @@  @@    @@@@@                    *
 *                                                                             *
 *                                                                             *
 %}ZS)S?$=$)]S?$%%>SS$%S$ZZ6cHHMHHHHHHHHMHHM&MHbHH6$L/:<S///</:|/:|:/::!:.::--:%
 $?S$$%$$$$?%?$(SSS$SSSHMMMMMMMMMMMMMMMMMM6H&6S&SH&&k?6$r~::://///::::::.:::-::$
 (%?)Z??$$$(S%$>$)S6HMMMMMMMMMMMMMMMMMMMMMMR6M]&&$6HR$&6(i::::::|i|:::::::-:-::(
 $S?$$)$?$%?))?S/]#MMMMMMMMMMMMMMMMMMMMMMMMMMHM1HRH9R&$$$|):?:/://|:/::/:/.::.:$
 SS$%%?$%((S)?Z[6MMMMMMMMMMMMMMMMMMMMMMMMMMMMMMMMM&HF$$&/)S?<~::!!:::::::/:-:|.S
 SS%%%%S$%%%$$MMMMMMMMMMMMMMMMMMMMMMMMMMMMMMMMMMMHHHHHHM>?/S/:/:::`:/://:/::-::S
 ?$SSSS?%SS$)MMMMMMMMMMMMMMMMMMMMMMMMMMMMMMMMMMMMMMMMMMM/4?:S:/:::/:::/:/:::.::?
 S$(S?S$%(?$HMMMMMMMMMMMMMMMMM#&7RH99MMMMMMMMMMMMMMMMMMHHHd$/:::::/::::::-//.:.S
 (?SS(%)S&HMMMMMMMMMMMMMMMMM#S|///???$9HHMMMMMMMMMDSZ&1S/?</>?~:///::|/!:/-:-:.(
 $S?%?<H(MMMMMMMMMMMMMMMMR?`. :.:`::<>:``?/*?##*)$:/>       `((%://::/:::::/::/$
 S$($$)HdMMMMMMMMMMMMMMMP: . `   `  `    `      `-            `Z<:>?::/:::::|:iS
 c%%%&HMMMMMMMMMMMMMMMM6:                                      `$%)>%%</>!:::::c
 S?%/MMMMMMMMMMMMMMMMMMH-                                        /ZSS>?:?~:;/::S
 $SZ?MMMMMMMMMMMMMMMMMH?.                                        \"&((/?//?|:::$
 $%$%&MMMMMMMMMMMMMMMMM:.                                          ?%/S:</::/::$
 ($?}&HMMMMMMMMMMMMMMMM>:                                          $%%<?/i:|i::(
 Z$($&MMMMMMMMMMMMMMMMHk(:.  . -                                   .S/\?\?/!:/:Z
 (??$<HMMMMMMMMMMMMMMMFk|:   -.-.                                  :%/%/(:/:ii|(
 SZ(S?]MMMMMMMMMMMMMMHS?:- -  ::.:                                  |/S:</::?||S
 $%)$$(MMMMMMMMMMMMMMR):`:. :.:::`,,/bcokb/_                       :S?%?|~:/:/:$
 %$$%$)[[?$?MMMMMMMMMM: :.:-.::::$7?<&7&MMMMMMM#/           _ .. ..:</?:(:/::::%
 $$$?Z?HHH~|/MMMMMMMMM/`.-.:.:/:%%%%?dHMMMMMMMMMMH?,-   .,bMMMM6//./i~/~:<:::/:$
 $($S$M//::S?ZHMMMMMH/:.`:::.:/%S/&MMHMMMMMMMMRM&><   ,HMMMMMMMF  :::?:///:|:::$
 )[$S$S($|_i:#>::*H&?/::.::/:\"://:?>>`:&HMHSMMMM$:`-   MMHMMMMHHT .)i/?////::/)
 $$[$$>$}:dHH&$$--?S::-:.:::--/-:``./::>%Zi?)&/?`:.`   `H?$T*\" `  /%?>%:)://ii$
 $&=&/ZS}$RF<:?/-.|%r/:::/:/:`.-.-..|::S//!`\"``          >??:    `SS<S:)!/////$
 Z&]>b[Z(Z?&%:::../S$$:>:::i`.`. `-.`  `                         ,>%%%:>/>/!|:/Z
 $$&/F&1$c$?>:>?/,>?$$ZS/::/:-: ...                              |S?S)S?<~:::::$
 &$&$&$k&>>|?<:<?((/$[/?)i~/:/. - -                              S?:%%%?/:::/::&
 =[/Z[[Fp[MMH$>?Z&S$$$/$S///||..-           -.-                  /((S$:%<:///:/=
 $&>1MHHMMMM6M9MMMM$Z$}$S%/:::.`.            .:/,,,dcb>/:.       ((SSSS%:)!//i|$
 MMMMMMMMMMMR&&RRRHR&&($(?:|i::-             .:%&S&$[&H&``     ../>%;/?>??:<::>M
 MMMMMMMMMMMMS/}S$&&H&[$SS//:::.:.   . . .v</Jq1&&D]&M&<,      :/::/?%%)S>?://:M
 MMMMMMMMMMMM?}$/$$kMM&&$(%/?//:..`.  .|//1d/`://?*/*/\"` `     .:/(SS$%(S%)):%M
 MMMMMMMMMMMM(}$$>&&MMHR#$S%%:?::.:|-.`:;&&b/D/$p=qpv//b/~`   :/~~%%??$=$)Z$S+;M
 MMMMMMMMMMMM[|S$$Z1]MMMMD[$?$:>)/::: :/?:``???bD&{b<<-`     .,:/)|SS(}Z/$$?/<SM
 MMMMMMMMMMMM||$)&7k&MMMMH9]$$??Z%|!/:i::`  `` .             SS?SS?Z/]1$/&$c/$SM
 MMMMMMMMMMMM| -?>[&]HMMMMMMMH1[/7SS(?:/..-` ::/Sc,/_,     _<$?SS%$S/&c&&$&>//<M
 MMMMMMMMMMMMR  `$&&&HMM9MMMMMMM&&c$%%:/:/:.:.:/\?\?/\    _MMHk/7S/]dq&1S<&&></M
 MMMMMMMMMMMMM?  :&96MHMMMMMMMMMMMHHk[S%(<<:// `         ,MMMMMMM&/Z6H]DkH]1$&&M
 MMMMMMMMMMMMMD    99H9HMMMMMMMMMMMMMMMb&%$<:i.:....    .MMMMMMMMM6HHHRH&H&H1SFM
 MMMMMMMMMMMMMM|   `?HMMMMMMMMMMMMMMMMMMMHk6k&>$&Z$/?_.bHMMMMMMMMMMM&6HRM9H6]ZkM
 MMMMMMMMMMMMMMM/    `TMMMMMMMMMMMMMMMMMMMMMMMMMMMMMMMMMMMMMMMMMMMMMMHMH6RH&R6&M
 MMMMMMMMMMMMMMMM    -|?HMMMMMMMMMMMMMMMMMMMMMMMMMMMMMMMMMMMMMMMMMMMMMFHH6HMD&&M
 MMMMMMMMMMMMMMMMk  ..:~?9MMMMMMMMMMMMM#`:MMMMMMMMMMMMMMMMMMMMMMMMMMMMM9MHkR6&FM
 MMMMMMMMMMMMMMMMM/  .-!:%$ZHMMMMMMMMMR` dMMMMMMMMMMMMMMMMMMMMMMMMMMMMM9MRMHH9&M
 MMMMMMMMMMMMMMMMMML,:.-|::/?&&MMMMMM` .MMMMMMMMMMMMMMMMMMMMMMMMMMMMMMMMHRMH&&6M
 MMMMMMMMMMMMMMMMMMMc%>/:::i<:SMMMMMMHdMMMMMMMMMMMMMMMMMMMMMMMMMMMMMMMMHHM&969kM
 MMMMMMMMMMMMMMMMMMMMSS/$$/(|HMMMMMMMMMMMMMMMMMMMMMMMMMMMMMMMMMMMMMMMMMMMHH&HH&M
 MMMMMMMMMMMMMMMMMMMM6S/?/MMMMMMMMMMMMMMMMMMMMMMMMMMMMMMMMMMMMMMMMMMMMMR96H1DR1M
 MMMMMMMMMMMMMMMMMMMMM&$MHMMMMMMMMMMMMMMMMMMMMMMMMMMMMMMMMMMMMMMMMMMMMMHMH691&&M
 MMMMMMMMMMMMMMMMMMMMMMMMMMMMMMMMMMMMMMMMMMMMMMMMMMMMMMMMMMMMMMMMMMMMMMMMH&R&9ZM
 MMMMMMMMMMMMMMMMMMMMMMMMMRHMMMMMMMMMMMMMMMMMMMMMMMMMMMMMMMMMMMMMMMMMMMMH&96][6M
 MMMMMMMMMMMMMMMMMMMMMMMMp?:MMMMMMMMMMMMMMMMMMMMMMMMMMMMMMMMMMMMMMMMMMM96HH1][FM
 MMMMMMMMMMMMMMMMMMMMMMMM> -HMMMMMMMMMMMMMMMMMMMMMMMMMMMMMMMMMMMMMMMMMMMH&1k&$&M
 *******************************************************************************
 *                                                                             *
 *         =========================================================           *
 *                     Program for Atomic and Molecular                        *
 *          Direct Iterative Relativistic All-electron Calculations            *
 *         =========================================================           *
 *                                                                             *
 *                                                                             *
 *    Written by:                                                              *
 *                                                                             *
 *    Hans Joergen Aa. Jensen  University of Southern Denmark    Denmark       *
 *    Radovan Bast             UiT The Arctic University of      Norway        *
 *    Andre S. P. Gomes        CNRS/Universite de Lille          France        *
 *    Trond Saue               Universite Toulouse III           France        *
 *    Lucas Visscher           Vrije Universiteit Amsterdam      Netherlands   *
 *                                                                             *
 *    with contributions from:                                                 *
 *                                                                             *
 *    Ignacio Agustin Aucar    CONICET/Northeastern University   Argentina     *
 *    Vebjoern Bakken          University of Oslo                Norway        *
 *    Chima Chibueze           Vrije Universiteit Amsterdam      Netherlands   *
 *    Joel Creutzberg          University of Southern Denmark    Denmark       *
 *    Kenneth G. Dyall         Schrodinger, Inc., Portland       USA           *
 *    Sebastien Dubillard      University of Strasbourg          France        *
 *    Ulf Ekstroem             University of Oslo                Norway        *
 *    Ephraim Eliav            University of Tel Aviv            Israel        *
 *    Thomas Enevoldsen        University of Southern Denmark    Denmark       *
 *    Elke Fasshauer           University of Tubingen            Germany       *
 *    Timo Fleig               Universite Toulouse III           France        *
 *    Olav Fossgaard           UiT The Arctic University of      Norway        *
 *    Loic Halbert             Universite de Lille               France        *
 *    Erik D. Hedegaard        University of Southern Denmark    Denmark       *
 *    Trygve Helgaker          University of Oslo                Norway        *
 *    Benjamin Helmich-Paris   Max Planck Institute f. Coal Res. Germany       *
 *    Johan Henriksson         Linkoeping University             Sweden        *
 *    Martin van Horn          Universite Toulouse III           France        *
 *    Miroslav Ilias           Matej Bel University              Slovakia      *
 *    Christoph R. Jacob       TU Braunschweig                   Germany       *
 *    Stefan Knecht            GSI Darmstadt/JGU Mainz           Germany       *
 *    Stanislav Komorovsky     Slovak Academy of Sciences        Slovakia      *
 *    Ossama Kullie            University of Kassel              Germany       *
 *    Jon K. Laerdahl          University of Oslo                Norway        *
 *    Christoffer V. Larsen    University of Southern Denmark    Denmark       *
 *    Yoon Sup Lee             KAIST, Daejeon                    South Korea   *
 *    Nanna Holmgaard List     Stockholm Inst. of Technology     Sweden        *
 *    Huliyar S. Nataraj       BME/Budapest Univ. Tech. & Econ.  Hungary       *
 *    Malaya Kumar Nayak       Bhabha Atomic Research Centre     India         *
 *    Patrick Norman           Stockholm Inst. of Technology     Sweden        *
 *    Malgorzata Olejniczak    University of Warsaw              Poland        *
 *    Jeppe Olsen              Aarhus University                 Denmark       *
 *    Jogvan Magnus H. Olsen   University of Southern Denmark    Denmark       *
 *    Anastasios Papadopoulos  Max Planck Institute f. Coal Res. Germany       *
 *    Young Choon Park         KAIST, Daejeon                    South Korea   *
 *    Jesper K. Pedersen       University of Southern Denmark    Denmark       *
 *    Markus Pernpointner      University of Heidelberg          Germany       *
 *    Johann V. Pototschnig    Technical University Graz         Austria       *
 *    Roberto Di Remigio       EuroCC National Competence Centre Sweden        *
 *    Michal Repisky           UiT The Arctic University of      Norway        *
 *    Kenneth Ruud             UiT The Arctic University of      Norway        *
 *    Pawel Salek              Stockholm Inst. of Technology     Sweden        *
 *    Bernd Schimmelpfennig    Karlsruhe Institute of Technology Germany       *
 *    Bruno Senjean            CNRS/Universite de Montpellier    France        *
 *    Avijit Shee              University of Berkeley            USA           *
 *    Jetze Sikkema            Vrije Universiteit Amsterdam      Netherlands   *
 *    Ayaki Sunaga             Kyoto University                  Japan         *
 *    Andreas J. Thorvaldsen   UiT The Arctic University of      Norway        *
 *    Joern Thyssen            University of Southern Denmark    Denmark       *
 *    Joost N. P. van Stralen  Vrije Universiteit Amsterdam      Netherlands   *
 *    Marta L. Vidal           Cardiff University                UK            *
 *    Sebastien Villaume       Linkoeping University             Sweden        *
 *    Olivier Visser           University of Groningen           Netherlands   *
 *    Toke Winther             University of Southern Denmark    Denmark       *
 *    Shigeyoshi Yamamoto      Chukyo University                 Japan         *
 *    Xiang Yuan               Universite de Lille               France        *
 *                                                                             *
 *    For more information about the DIRAC code see http://diracprogram.org    *
 *                                                                             *
 *    This is an experimental code. The authors accept no responsibility       *
 *    for the performance of the code or for the correctness of the results.   *
 *                                                                             *
 *    This program is free software; you can redistribute it and/or            *
 *    modify it under the terms of the GNU Lesser General Public               *
 *    License version 2.1 as published by the Free Software Foundation.        *
 *                                                                             *
 *    If results obtained with this code are published, an                     *
 *    appropriate citation would be:                                           *
 *                                                                             *
 *    DIRAC, a relativistic ab initio electronic structure program,            *
 *    Release DIRAC22 (2022), written by                                       *
 *    H. J. Aa. Jensen, R. Bast, A. S. P. Gomes, T. Saue, and L. Visscher,     *
 *    with contributions from I. A. Aucar, V. Bakken, C. Chibueze,             *
 *    J. Creutzberg, K. G. Dyall, S. Dubillard, U. Ekstroem, E. Eliav,         *
 *    T. Enevoldsen, E. Fasshauer, T. Fleig, O. Fossgaard, L. Halbert,         *
 *    E. D. Hedegaard, T. Helgaker, J. Henriksson, M. van Horn, M. Ilias,      *
 *    Ch. R. Jacob, S. Knecht, S. Komorovsky, O. Kullie, J. K. Laerdahl,       *
 *    C. V. Larsen, Y. S. Lee, N. H. List, H. S. Nataraj, M. K. Nayak,         *
 *    P. Norman, M. Olejniczak, J. Olsen, J. M. H. Olsen, A. Papadopoulos,     *
 *    Y. C. Park, J. K. Pedersen, M. Pernpointner, J. V. Pototschnig,          *
 *    R. Di Remigio, M. Repisky, K. Ruud, P. Salek, B. Schimmelpfennig,        *
 *    B. Senjean, A. Shee, J. Sikkema, A. Sunaga, A. J. Thorvaldsen,           *
 *    J. Thyssen, J. N. P. van Stralen, M. L. Vidal, S. Villaume,              *
 *    O. Visser, T. Winther, S. Yamamoto and X. Yuan                           *
 *    (see http://diracprogram.org).                                           *
 *                                                                             *
 *    as well as our reference paper: J. Chem. Phys. 152 (2020) 204104.        *
 *                                                                             *
 *******************************************************************************


Version information
-------------------

Branch        | hjaaj-wip-master
Commit hash   | d41fdde48
Commit author | Hans Jørgen Aagaard Jensen
Commit date   | Wed Jun 29 13:45:07 2022 +0200


Configuration and build information
-----------------------------------

Who compiled             | hjj
Compiled on server       | fe-ac-02.escience.sdu.dk
Operating system         | Linux-5.4.119.el7
CMake version            | 3.21.1
CMake generator          | Unix Makefiles
CMake build type         | release
Configuration time       | 2022-06-29 13:56:02.814657
Python version           | 2.7.5
Fortran compiler         | /opt/sys/easybuild/software/OpenMPI/4.1.1-GCC-11.2.0/bin/mpif90
Fortran compiler version | 11.2.0
Fortran compiler flags   |  -g -fcray-pointer -fbacktrace -fno-range-check -DVAR_GFORTRAN -DVAR_MFDS -fallow-argument-mismatch  -fopenmp -g -fcray-pointer -fbacktrace -fno-range-check -DVAR_GFORTRAN -DVAR_MFDS -fallow-argument-mismatch  -fopenmp
C compiler               | /opt/sys/easybuild/software/OpenMPI/4.1.1-GCC-11.2.0/bin/mpicc
C compiler version       | 11.2.0
C compiler flags         |  -g  -fopenmp -g  -fopenmp
C++ compiler             | /opt/sys/easybuild/software/OpenMPI/4.1.1-GCC-11.2.0/bin/mpicxx
C++ compiler version     | 11.2.0
C++ compiler flags       |  -g -Wall -Wno-unknown-pragmas -Wno-sign-compare -Woverloaded-virtual -Wwrite-strings -Wno-unused  -fopenmp -g -Wall -Wno-unknown-pragmas -Wno-sign-compare -Woverloaded-virtual -Wwrite-strings -Wno-unused  -fopenmp
Static linking           | False
64-bit integers          | False
MPI parallelization      | True
MPI launcher             | /opt/sys/easybuild/software/OpenMPI/4.1.1-GCC-11.2.0/bin/mpiexec
Math libraries           | /opt/sys/easybuild/software/OpenBLAS/0.3.18-GCC-11.2.0/lib/libopenblas.so;/opt/sys/easybuild/software/OpenBLAS/0.3.18-GCC-11.2.0/lib/libopenblas.so
Builtin BLAS library     | OFF
Builtin LAPACK library   | OFF
Explicit libraries       | unknown
Compile definitions      | HAVE_MPI;HAVE_OPENMP;VAR_MPI;VAR_MPI2;USE_MPI_MOD_F90;SYS_LINUX;PRG_DIRAC;INSTALL_WRKMEM=64000000;HAS_PCMSOLVER;BUILD_GEN1INT;HAS_PELIB;MOD_QCORR;HAS_STIELTJES;MOD_LAO_REARRANGED;MOD_MCSCF_spinfree;MOD_AOOSOC;MOD_ESR;MOD_KRCC;MOD_SRDFT;HAS_LAPLACE

EXACORR dependencies
--------------------
Exatensor source repo    | unknown
Exatensor git hash       | unknown
Exatensor configuration  | unknown


 LAPACK integer*4/8 selftest passed
 Selftest of ISO_C_BINDING Fortran - C/C++ interoperability PASSED


 * openMP activated,  thread limit - # processes - # threads: *****   64    1

Execution time and host
-----------------------

 
     Date and time (Linux)  : Wed Jun 29 16:05:54 2022
     Host name              : fe-ac-02.escience.sdu.dk                

 * Opening HDF5 checkpoint file 
    - DIRAC was compiled without hdf5, checkpointing is not possible


Contents of the input file
--------------------------

**DIRAC                                                                                             
.TITLE                                                                                              
  H2O,count CC memory demand                                                                        
.WAVE FUNCTION                                                                                      
**MOLECULE                                                                                          
*BASIS                                                                                              
.DEFAULT                                                                                            
dyall.ae4z                                                                                          
**HAMILTONIAN                                                                                       
.X2C                                                                                                
**INTEGRALS                                                                                         
*READIN                                                                                             
.UNCONTRACT                                                                                         
**WAVE FUNCTION                                                                                     
.SCF                                                                                                
.RELCCSD                                                                                            
**SCF                                                                                               
.PRINT                                                                                              
1                                                                                                   
.CLOSED SHELL                                                                                       
10                                                                                                  
.EVCCNV                                                                                             
1.0D-8 1.0D-6                                                                                       
# reads starting MO's from DFPCMO                                                                   
.MAXITR                                                                                             
2                                                                                                   
**MOLTRA                                                                                            
# freeze O:1s(2)                                                                                    
.ACTIVE                                                                                             
energy -10.00  50.00 0.02                                                                           
# no 2-electron integrals transformations for RelCC memory count                                    
# as only MRCONEE is needed                                                                         
.NO4IND                                                                                             
**RELCCSD                                                                                           
# only count the memory cost and exit                                                               
.COUNTMEM                                                                                           
.NELEC                                                                                              
4 4                                                                                                 
*CCENER                                                                                             
.NTOL                                                                                               
6                                                                                                   
*END OF                                                                                             


Contents of the molecule file
-----------------------------

3                                                                                                   
 H2O molecule in the C2V symmetry                                                                   
O    0.0      0.00000000   0.0000000                                                                
H    0.0      0.75115500  -0.5816060                                                                
H    0.0     -0.75115500  -0.5816060                                                                
                                                                                                    


    **************************************************************************
    **********************   H2O,count CC memory demand **********************
    **************************************************************************

 Jobs in this run:
   * Wave function


    **************************************************************************
    ************************** General DIRAC set-up **************************
    **************************************************************************

   CODATA Recommended Values of the Fundamental Physical Constants: 2018  
             Peter J. Mohr, David B. Newell and Barry N. Taylor           
         Reviews of Modern Physics, Vol. 93, 025010 (2021)                
 * The speed of light :        137.0359992
 * Running in two-component mode
 * Direct evaluation of the following two-electron integrals:
   - LL-integrals
 * Spherical transformation embedded in MO-transformation
   for large components
 * Transformation to scalar RKB basis embedded in
   MO-transformation for small components
 * Thresholds for linear dependence:
   Large components:   1.00D-06
   Small components:   1.00D-08
 * General print level   :   0


    *************************************************************************
    ****************** Output from HERMIT input processing ******************
    *************************************************************************

 Default print level:        1
 Using default nuclear model: Gaussian charge distribution.

 Two-electron integrals not calculated.


 Ordinary (field-free non-relativistic) Hamiltonian integrals not calculated.



 Changes of defaults for *READIN
 -------------------------------


 Uncontracted basis forced, irrespective of basis input file.



   ***************************************************************************
   ****************** Output from MOLECULE input processing ******************
   ***************************************************************************



                     SYMADD: Detection of molecular symmetry
                     ---------------------------------------

 Symmetry test threshold:  5.00E-06

    The molecule has been centered at center of mass

 Symmetry point group found: C(2v)          

 Rotational Axes
 ---------------
       2 :      0.00000000     0.00000000    -1.00000000  Isotope  0

 No unique improper rotational axes were found.

 Mirror planes
 -----------------------------
 #1 = Type: 2=h, 1=v, 0=other
 #2 = Number of atoms in plane
 #3-5 = normal vector of plane
 -----------------------------
 0     1 :     -1.00000000     0.00000000     0.00000000
 0     1 :      0.00000000     1.00000000     0.00000000

 The following symmetry elements were found: X  Y     


  Symmetry Operations
  -------------------

  Symmetry operations: 2



                          SYMGRP:Point group information
                          ------------------------------

Full group is:  C(2v)          
Represented as: C2v

   * The point group was generated by:

      Reflection in the yz-plane
      Reflection in the xz-plane

   * Group multiplication table

        |  E   C2z  Oxz  Oyz
   -----+--------------------
     E  |  E   C2z  Oxz  Oyz
    C2z | C2z   E   Oyz  Oxz
    Oxz | Oxz  Oyz   E   C2z
    Oyz | Oyz  Oxz  C2z   E 

   * Character table

        |  E   C2z  Oxz  Oyz
   -----+--------------------
    A1  |   1    1    1    1
    B1  |   1   -1    1   -1
    B2  |   1   -1   -1    1
    A2  |   1    1   -1   -1

   * Direct product table

        | A1   B1   B2   A2 
   -----+--------------------
    A1  | A1   B1   B2   A2 
    B1  | B1   A1   A2   B2 
    B2  | B2   A2   A1   B1 
    A2  | A2   B2   B1   A1 


                            **************************
                            *** Output from DBLGRP ***
                            **************************

   * One fermion irrep:   E1 
   * Real group. NZ = 1
   * Direct product decomposition:
          E1  x E1  : A1  + A2  + B1  + B2 


                                 Spinor structure
                                 ----------------


   * Fermion irrep no.: 1
      La  |  A1 (1)  A2 (2)  |
      Sa  |  A2 (1)  A1 (2)  |
      Lb  |  B1 (3)  B2 (4)  |
      Sb  |  B2 (3)  B1 (4)  |


                              Quaternion symmetries
                              ---------------------

    Rep  T(+)
    -----------------------------
    A1   1
    B1   j
    B2   k
    A2   i

  Nuclear repulsion energy                       :      9.264703737556 Hartree

  Nuclear contribution to electric dipole moment :    0.000000000000    0.000000000000   -0.968122594367 a.u.;  origin (0,0,0)


  Atoms and basis sets
  --------------------

  Number of atom types :    2
  Total number of atoms:    3

  label    atoms   charge   prim    cont     basis   
  ----------------------------------------------------------------------
  O           1       8     123     123      L  - [18s10p5d3f1g|18s10p5d3f1g]                                    
  H           2       1      42      42      L  - [11s3p2d1f|11s3p2d1f]                                          
  ----------------------------------------------------------------------
                            207     207      L  - large components
  ----------------------------------------------------------------------
  total:      3      10     207     207

  Cartesian basis used.
  Threshold for integrals (to be written to file):  1.00D-15


  References for the basis sets
  -----------------------------

  Atom type   1   2
   1s-3s: K.G. Dyall, Theor. Chem. Acc. (2016) 135:128.                           
   4s-7s: K.G. Dyall, J. Phys. Chem. A. (2009) 113:12638;                         
          K.G. Dyall, Theor. Chem. Acc. (2012) 131:1217.                          
   2p-3p: K.G. Dyall, Theor. Chem. Acc. (2016) 135:128.                           
   4p-6p: K.G. Dyall, Theor. Chem. Acc. (2006) 115:441;                           
          K.G. Dyall, Theor. Chem. Acc. (2012) 131:1217.                          
      7p: K.G. Dyall, Theor. Chem. Acc. (2012) 131:1172;                          
          K.G. Dyall, Theor. Chem. Acc. (2012) 131:1217.                          
      3d: K.G. Dyall and A.S.P. Gomes, unpublished.                               
      4d: K.G. Dyall, Theor. Chem. Acc. (2007) 117:483;                           


  Cartesian Coordinates (bohr)
  ----------------------------

  Total number of coordinates:  9


   1   O        x      0.0000000000
   2            y      0.0000000000
   3            z      0.1230029511

   4   H    1   x      0.0000000000
   5            y      1.4194772271
   6            z     -0.9760731014

   7   H    2   x      0.0000000000
   8            y     -1.4194772271
   9            z     -0.9760731014



  Cartesian coordinates in XYZ format (Angstrom)
  ----------------------------------------------

    3

O      0.0000000000   0.0000000000   0.0650903586
H      0.0000000000   0.7511550000  -0.5165156414
H      0.0000000000  -0.7511550000  -0.5165156414


  Symmetry Coordinates
  --------------------

  Number of coordinates in each symmetry:     3    2    3    1


  Symmetry  A1 ( 1)

    1   O     z    3
    2   H     y    [  5  -    8 ]/2
    3   H     z    [  6  +    9 ]/2


  Symmetry  B1 ( 2)

    4   O     x    1
    5   H     x    [  4  +    7 ]/2


  Symmetry  B2 ( 3)

    6   O     y    2
    7   H     y    [  5  +    8 ]/2
    8   H     z    [  6  -    9 ]/2


  Symmetry  A2 ( 4)

    9   H     x    [  4  -    7 ]/2


   Interatomic separations (in Angstroms):
   ---------------------------------------

            O           H  1        H  2

   O       0.000000
   H  1    0.950000    0.000000
   H  2    0.950000    1.502310    0.000000




  Bond distances (angstroms):
  ---------------------------

                  atom 1     atom 2                           distance
                  ------     ------                           --------
  bond distance:    H  1       O                              0.950000
  bond distance:    H  2       O                              0.950000


  Bond angles (degrees):
  ----------------------

                  atom 1     atom 2     atom 3                   angle
                  ------     ------     ------                   -----
  bond angle:       H  2       O          H  1                 104.500



   Nuclear repulsion energy                          :    9.264703737556 Hartree

                       * Total mass:    18.010565 amu
                       * Natural abundance:  99.730 %


* Center-of-mass coordinates (a.u.):       0.000000000000000   0.000000000000000   0.000000000000000
* Center-of-mass coordinates (A)   :       0.000000000000000   0.000000000000000   0.000000000000000


                                GETLAB: AO-labels
                                -----------------

   * Large components:   75
     1  L O   1 s        2  L O   1 px       3  L O   1 py       4  L O   1 pz       5  L O   1 dxx      6  L O   1 dxy 
     7  L O   1 dxz      8  L O   1 dyy      9  L O   1 dyz     10  L O   1 dzz     11  L O   1 fxxx    12  L O   1 fxxy
    13  L O   1 fxxz    14  L O   1 fxyy    15  L O   1 fxyz    16  L O   1 fxzz    17  L O   1 fyyy    18  L O   1 fyyz
    19  L O   1 fyzz    20  L O   1 fzzz    21  L O   1 g400    22  L O   1 g310    23  L O   1 g301    24  L O   1 g220
    25  L O   1 g211    26  L O   1 g202    27  L O   1 g130    28  L O   1 g121    29  L O   1 g112    30  L O   1 g103
    31  L O   1 g040    32  L O   1 g031    33  L O   1 g022    34  L O   1 g013    35  L O   1 g004    36  L H   1 s   
    37  L H   2 s       38  L H   1 px      39  L H   1 py      40  L H   1 pz      41  L H   2 px      42  L H   2 py  
    43  L H   2 pz      44  L H   1 dxx     45  L H   1 dxy     46  L H   1 dxz     47  L H   1 dyy     48  L H   1 dyz 
    49  L H   1 dzz     50  L H   2 dxx     51  L H   2 dxy     52  L H   2 dxz     53  L H   2 dyy     54  L H   2 dyz 
    55  L H   2 dzz     56  L H   1 fxxx    57  L H   1 fxxy    58  L H   1 fxxz    59  L H   1 fxyy    60  L H   1 fxyz
    61  L H   1 fxzz    62  L H   1 fyyy    63  L H   1 fyyz    64  L H   1 fyzz    65  L H   1 fzzz    66  L H   2 fxxx
    67  L H   2 fxxy    68  L H   2 fxxz    69  L H   2 fxyy    70  L H   2 fxyz    71  L H   2 fxzz    72  L H   2 fyyy
    73  L H   2 fyyz    74  L H   2 fyzz    75  L H   2 fzzz
   * Small components:    0



                                GETLAB: SO-labels
                                -----------------

   * Large components:   75
     1  L A1 O  s        2  L A1 O  pz       3  L A1 O  dxx      4  L A1 O  dyy      5  L A1 O  dzz      6  L A1 O  fxxz
     7  L A1 O  fyyz     8  L A1 O  fzzz     9  L A1 O  g400    10  L A1 O  g220    11  L A1 O  g202    12  L A1 O  g040
    13  L A1 O  g022    14  L A1 O  g004    15  L A1 H  s       16  L A1 H  py      17  L A1 H  pz      18  L A1 H  dxx 
    19  L A1 H  dyy     20  L A1 H  dyz     21  L A1 H  dzz     22  L A1 H  fxxy    23  L A1 H  fxxz    24  L A1 H  fyyy
    25  L A1 H  fyyz    26  L A1 H  fyzz    27  L A1 H  fzzz    28  L B1 O  px      29  L B1 O  dxz     30  L B1 O  fxxx
    31  L B1 O  fxyy    32  L B1 O  fxzz    33  L B1 O  g301    34  L B1 O  g121    35  L B1 O  g103    36  L B1 H  px  
    37  L B1 H  dxy     38  L B1 H  dxz     39  L B1 H  fxxx    40  L B1 H  fxyy    41  L B1 H  fxyz    42  L B1 H  fxzz
    43  L B2 O  py      44  L B2 O  dyz     45  L B2 O  fxxy    46  L B2 O  fyyy    47  L B2 O  fyzz    48  L B2 O  g211
    49  L B2 O  g031    50  L B2 O  g013    51  L B2 H  s       52  L B2 H  py      53  L B2 H  pz      54  L B2 H  dxx 
    55  L B2 H  dyy     56  L B2 H  dyz     57  L B2 H  dzz     58  L B2 H  fxxy    59  L B2 H  fxxz    60  L B2 H  fyyy
    61  L B2 H  fyyz    62  L B2 H  fyzz    63  L B2 H  fzzz    64  L A2 O  dxy     65  L A2 O  fxyz    66  L A2 O  g310
    67  L A2 O  g130    68  L A2 O  g112    69  L A2 H  px      70  L A2 H  dxy     71  L A2 H  dxz     72  L A2 H  fxxx
    73  L A2 H  fxyy    74  L A2 H  fxyz    75  L A2 H  fxzz
   * Small components:    0



  Symmetry Orbitals
  -----------------

  Number of orbitals in each symmetry:           89    38    58    22
  Number of large orbitals in each symmetry:     89    38    58    22
  Number of small orbitals in each symmetry:      0     0     0     0

* Large component functions

  Symmetry  A1 ( 1)

       18 functions:    O  s   
       10 functions:    O  pz  
        5 functions:    O  dxx 
        5 functions:    O  dyy 
        5 functions:    O  dzz 
        3 functions:    O  fxxz
        3 functions:    O  fyyz
        3 functions:    O  fzzz
        1 functions:    O  g400
        1 functions:    O  g220
        1 functions:    O  g202
        1 functions:    O  g040
        1 functions:    O  g022
        1 functions:    O  g004
       11 functions:    H  s   1+2
        3 functions:    H  py  1-2
        3 functions:    H  pz  1+2
        2 functions:    H  dxx 1+2
        2 functions:    H  dyy 1+2
        2 functions:    H  dyz 1-2
        2 functions:    H  dzz 1+2
        1 functions:    H  fxxy1-2
        1 functions:    H  fxxz1+2
        1 functions:    H  fyyy1-2
        1 functions:    H  fyyz1+2
        1 functions:    H  fyzz1-2
        1 functions:    H  fzzz1+2

  Symmetry  B1 ( 2)

       10 functions:    O  px  
        5 functions:    O  dxz 
        3 functions:    O  fxxx
        3 functions:    O  fxyy
        3 functions:    O  fxzz
        1 functions:    O  g301
        1 functions:    O  g121
        1 functions:    O  g103
        3 functions:    H  px  1+2
        2 functions:    H  dxy 1-2
        2 functions:    H  dxz 1+2
        1 functions:    H  fxxx1+2
        1 functions:    H  fxyy1+2
        1 functions:    H  fxyz1-2
        1 functions:    H  fxzz1+2

  Symmetry  B2 ( 3)

       10 functions:    O  py  
        5 functions:    O  dyz 
        3 functions:    O  fxxy
        3 functions:    O  fyyy
        3 functions:    O  fyzz
        1 functions:    O  g211
        1 functions:    O  g031
        1 functions:    O  g013
       11 functions:    H  s   1-2
        3 functions:    H  py  1+2
        3 functions:    H  pz  1-2
        2 functions:    H  dxx 1-2
        2 functions:    H  dyy 1-2
        2 functions:    H  dyz 1+2
        2 functions:    H  dzz 1-2
        1 functions:    H  fxxy1+2
        1 functions:    H  fxxz1-2
        1 functions:    H  fyyy1+2
        1 functions:    H  fyyz1-2
        1 functions:    H  fyzz1+2
        1 functions:    H  fzzz1-2

  Symmetry  A2 ( 4)

        5 functions:    O  dxy 
        3 functions:    O  fxyz
        1 functions:    O  g310
        1 functions:    O  g130
        1 functions:    O  g112
        3 functions:    H  px  1-2
        2 functions:    H  dxy 1+2
        2 functions:    H  dxz 1-2
        1 functions:    H  fxxx1-2
        1 functions:    H  fxyy1-2
        1 functions:    H  fxyz1+2
        1 functions:    H  fxzz1-2


   ***************************************************************************
   *************************** Hamiltonian defined ***************************
   ***************************************************************************


 One-electron operator origins:
 - General operator origin (a.u.)       :   0.000000000000000   0.000000000000000   0.000000000000000
 - Magnetic gauge origin (a.u.)         :   0.000000000000000   0.000000000000000   0.000000000000000
 - Dipole (and multipole) origin (a.u.) :   0.000000000000000   0.000000000000000   0.000000000000000
 * Print level:    0
 * Exact-Two-Component (X2C) Hamiltonian
   Reference: 
    M. Ilias and T. Saue:
    "Implementation of an infinite-order two-component relativistic Hamiltonian 
    by a simple one-step transformation." 
    J. Chem. Phys., 126 (2007) 064102.
   additional reference for the new X2C module:
    S. Knecht and T. Saue:
    manuscript in preparation, Strasbourg 2010.

 * Running in two-component mode
 * Default integral flags passed to all modules
   - LL-integrals:     1
   - LS-integrals:     0
   - SS-integrals:     0
   - GT-integrals:     0
===========================================================================
   Set-up for AMFI/RELSCF calculations
===========================================================================
  ...no reading under "*AMFI  ", thus default settings
 * AMFI   code print level:    0
 * RELSCF code print level:    0
 * RELSCF maximum number of iterations:   50
 * All AMFI mean-field summations are on neutral individual atoms.
 * order of AMFI contributions to the X2C Hamiltonian:  2
  --> adding spin-same orbit MFSSO2 terms.


    **************************************************************************
    ************************** Wave function module **************************
    **************************************************************************

 Wave function types requested (in input order):
     HF        
     RELCCSD   

 Wave function jobs in execution order (expanded):
 * Hartree-Fock calculation
 * Run RELCCSD code

 * Initial Automatic occupation based on:
   Total charge of atoms =  10
   Charge of molecule    =   0
   i.e. no. of electrons =  10
===========================================================================
 *SCF: Set-up for Hartree-Fock calculation:
===========================================================================
 * Number of fermion irreps: 1
 * Closed shell SCF calculation with    10 electrons in    5 orbitals.
 * Charge of molecule : 0
 * Sum of atomic potentials used for start guess
 * General print level   :   0

 ***** INITIAL TRIAL SCF FUNCTION *****
 * Trial vectors read from file DFCOEF
 * Scaling of active-active block correction to open shell Fock operator    0.500000
   to improve convergence (default value).

 ***** SCF CONVERGENCE CRITERIA *****
 * Convergence on norm of error vector (gradient).
   Desired convergence:1.000D-07
   Allowed convergence:1.000D-06

 ***** CONVERGENCE CONTROL *****
 * Fock matrix constructed using differential density matrix
    with optimal parameter.
 * DIIS (in MO basis)
 * DIIS will be activated when convergence reaches : 1.00D+20
   - Maximum size of B-matrix:   10
 * Damping of Fock matrix when DIIS is not activated. 
   Weight of old matrix    : 0.250
 * Maximum number of SCF iterations  :   50
 * No quadratic convergent Hartree-Fock
 * Contributions from 2-electron integrals to Fock matrix:
   LL-integrals.
    ---> this is default setting from Hamiltonian input
 * NB!!! No e-p rotations in 2nd order optimization.
 ***** OUTPUT CONTROL *****
 * Only electron eigenvalues written out.
===========================================================================
 **RELCC: Set-up for Coupled Cluster calculations
===========================================================================
 Asked for RelCC memory consumption count. Afterwards leave.
===========================================================================
 TRPINP: Property integral transformation
===========================================================================
 * Print level:    0
 *The following operators will be transformed:
    1  XDIPLEN              B1      T+
...........................................................................
      Operator type DIAGONAL : scalar operator
      Labels and factors     : XDIPLEN  +00+     1.0000000000000 (real)     
...........................................................................
    2  YDIPLEN              B2      T+
...........................................................................
      Operator type DIAGONAL : scalar operator
      Labels and factors     : YDIPLEN  +00+     1.0000000000000 (real)     
...........................................................................
    3  ZDIPLEN              A1      T+
...........................................................................
      Operator type DIAGONAL : scalar operator
      Labels and factors     : ZDIPLEN  +00+     1.0000000000000 (real)     
...........................................................................
---------------------------------------------------------------------------



===========================================================================
 TRAINP: Set-up for index transformation
===========================================================================

 * General print level   :   0
 * Electronic orbitals only.
 * Skip 4-index transformation.
 * Total active space.
    Fermion ircop:E1 
     No explicit orbitals specified 

 * Set-up for 2-index transformation
 * LS Integrals not included in core Fock-matrix
 * SS Integrals not included in core Fock-matrix
 * Active spaces:
    Fermion ircop:E1 
     No explicit orbitals specified for index  1
     No explicit orbitals specified for index  2

 * Set-up for 4-index transformation
 * Following scheme      :   6
 - write half-transformed integrals (ij|rs) to disk
 - sorting of intermediate 1HT integrals is disabled
 * Screening threshold :1.00E-14
 * MO integral threshold :1.00E-14
 * LS Integrals not transformed.
 * SS Integrals not transformed.
 * Gaunt Integrals not transformed.
 * Active spaces:
    Fermion ircop:E1 
     No explicit orbitals specified for index  1
     No explicit orbitals specified for index  2
     No explicit orbitals specified for index  3
     No explicit orbitals specified for index  4


 ********************************************************************************
 *************************** Input consistency checks ***************************
 ********************************************************************************



    *************************************************************************
    ************************ End of input processing ************************
    *************************************************************************



   ***************************************************************************
   ****************** Output from MOLECULE input processing ******************
   ***************************************************************************



                     SYMADD: Detection of molecular symmetry
                     ---------------------------------------

 Symmetry test threshold:  5.00E-06

    The molecule has been centered at center of mass

 Symmetry point group found: C(2v)          

 Rotational Axes
 ---------------
       2 :      0.00000000     0.00000000    -1.00000000  Isotope  0

 No unique improper rotational axes were found.

 Mirror planes
 -----------------------------
 #1 = Type: 2=h, 1=v, 0=other
 #2 = Number of atoms in plane
 #3-5 = normal vector of plane
 -----------------------------
 0     1 :     -1.00000000     0.00000000     0.00000000
 0     1 :      0.00000000     1.00000000     0.00000000

 The following symmetry elements were found: X  Y     


  Symmetry Operations
  -------------------

  Symmetry operations: 2



                          SYMGRP:Point group information
                          ------------------------------

Full group is:  C(2v)          
Represented as: C2v

   * The point group was generated by:

      Reflection in the yz-plane
      Reflection in the xz-plane

   * Group multiplication table

        |  E   C2z  Oxz  Oyz
   -----+--------------------
     E  |  E   C2z  Oxz  Oyz
    C2z | C2z   E   Oyz  Oxz
    Oxz | Oxz  Oyz   E   C2z
    Oyz | Oyz  Oxz  C2z   E 

   * Character table

        |  E   C2z  Oxz  Oyz
   -----+--------------------
    A1  |   1    1    1    1
    B1  |   1   -1    1   -1
    B2  |   1   -1   -1    1
    A2  |   1    1   -1   -1

   * Direct product table

        | A1   B1   B2   A2 
   -----+--------------------
    A1  | A1   B1   B2   A2 
    B1  | B1   A1   A2   B2 
    B2  | B2   A2   A1   B1 
    A2  | A2   B2   B1   A1 


                            **************************
                            *** Output from DBLGRP ***
                            **************************

   * One fermion irrep:   E1 
   * Real group. NZ = 1
   * Direct product decomposition:
          E1  x E1  : A1  + A2  + B1  + B2 


                                 Spinor structure
                                 ----------------


   * Fermion irrep no.: 1
      La  |  A1 (1)  A2 (2)  |
      Sa  |  A2 (1)  A1 (2)  |
      Lb  |  B1 (3)  B2 (4)  |
      Sb  |  B2 (3)  B1 (4)  |


                              Quaternion symmetries
                              ---------------------

    Rep  T(+)
    -----------------------------
    A1   1
    B1   j
    B2   k
    A2   i

  Nuclear repulsion energy                       :      9.264703737556 Hartree

  Nuclear contribution to electric dipole moment :    0.000000000000    0.000000000000   -0.968122594367 a.u.;  origin (0,0,0)


  Atoms and basis sets
  --------------------

  Number of atom types :    2
  Total number of atoms:    3

  label    atoms   charge   prim    cont     basis   
  ----------------------------------------------------------------------
  O           1       8     123     123      L  - [18s10p5d3f1g|18s10p5d3f1g]                                    
  H           2       1      42      42      L  - [11s3p2d1f|11s3p2d1f]                                          
  ----------------------------------------------------------------------
                            207     207      L  - large components
                            485     485      S  - small components
  ----------------------------------------------------------------------
  total:      3      10     692     692

  Cartesian basis used.
  Threshold for integrals (to be written to file):  1.00D-15


  References for the basis sets
  -----------------------------

  Atom type   1   2
   1s-3s: K.G. Dyall, Theor. Chem. Acc. (2016) 135:128.                           
   4s-7s: K.G. Dyall, J. Phys. Chem. A. (2009) 113:12638;                         
          K.G. Dyall, Theor. Chem. Acc. (2012) 131:1217.                          
   2p-3p: K.G. Dyall, Theor. Chem. Acc. (2016) 135:128.                           
   4p-6p: K.G. Dyall, Theor. Chem. Acc. (2006) 115:441;                           
          K.G. Dyall, Theor. Chem. Acc. (2012) 131:1217.                          
      7p: K.G. Dyall, Theor. Chem. Acc. (2012) 131:1172;                          
          K.G. Dyall, Theor. Chem. Acc. (2012) 131:1217.                          
      3d: K.G. Dyall and A.S.P. Gomes, unpublished.                               
      4d: K.G. Dyall, Theor. Chem. Acc. (2007) 117:483;                           


  Cartesian Coordinates (bohr)
  ----------------------------

  Total number of coordinates:  9


   1   O        x      0.0000000000
   2            y      0.0000000000
   3            z      0.1230029511

   4   H    1   x      0.0000000000
   5            y      1.4194772271
   6            z     -0.9760731014

   7   H    2   x      0.0000000000
   8            y     -1.4194772271
   9            z     -0.9760731014



  Cartesian coordinates in XYZ format (Angstrom)
  ----------------------------------------------

    3

O      0.0000000000   0.0000000000   0.0650903586
H      0.0000000000   0.7511550000  -0.5165156414
H      0.0000000000  -0.7511550000  -0.5165156414


  Symmetry Coordinates
  --------------------

  Number of coordinates in each symmetry:     3    2    3    1


  Symmetry  A1 ( 1)

    1   O     z    3
    2   H     y    [  5  -    8 ]/2
    3   H     z    [  6  +    9 ]/2


  Symmetry  B1 ( 2)

    4   O     x    1
    5   H     x    [  4  +    7 ]/2


  Symmetry  B2 ( 3)

    6   O     y    2
    7   H     y    [  5  +    8 ]/2
    8   H     z    [  6  -    9 ]/2


  Symmetry  A2 ( 4)

    9   H     x    [  4  -    7 ]/2


   Interatomic separations (in Angstroms):
   ---------------------------------------

            O           H  1        H  2

   O       0.000000
   H  1    0.950000    0.000000
   H  2    0.950000    1.502310    0.000000




  Bond distances (angstroms):
  ---------------------------

                  atom 1     atom 2                           distance
                  ------     ------                           --------
  bond distance:    H  1       O                              0.950000
  bond distance:    H  2       O                              0.950000


  Bond angles (degrees):
  ----------------------

                  atom 1     atom 2     atom 3                   angle
                  ------     ------     ------                   -----
  bond angle:       H  2       O          H  1                 104.500



   Nuclear repulsion energy                          :    9.264703737556 Hartree

                       * Total mass:    18.010565 amu
                       * Natural abundance:  99.730 %


* Center-of-mass coordinates (a.u.):       0.000000000000000   0.000000000000000   0.000000000000000
* Center-of-mass coordinates (A)   :       0.000000000000000   0.000000000000000   0.000000000000000


                      Nuclear contribution to dipole moments
                      --------------------------------------

                               au             Debye

                    z     -0.96812259     -2.46074497

                        1 Debye =   2.54177000 a.u. 

Total time used in ONEGEN (CPU)  0.07297400s and (WALL)  0.13600000s


                       Generating Lowdin canonical matrix:
                       -----------------------------------

   L   A1    * Deleted:         15(Proj:         15, Lindep:          0) Smin: 0.26E-03
   L   B1    * Deleted:          5(Proj:          5, Lindep:          0) Smin: 0.60E-02
   L   B2    * Deleted:          8(Proj:          8, Lindep:          0) Smin: 0.63E-03
   L   A2    * Deleted:          2(Proj:          2, Lindep:          0) Smin: 0.16E-01
   S   A1    * Deleted:         43(Proj:         43, Lindep:          0) Smin: 0.51E-06
   S   B1    * Deleted:         16(Proj:         16, Lindep:          0) Smin: 0.55E-06
   S   B2    * Deleted:         24(Proj:         24, Lindep:          0) Smin: 0.44E-06
   S   A2    * Deleted:          8(Proj:          8, Lindep:          0) Smin: 0.10E-04

                   *********************************************************************
                   ***   Entering the Exact-Two-Component (X2C) interface in DIRAC   ***
                   ***                                                               ***
                   *** library version:  1.2 (August  2013)                          ***
                   ***                                                               ***
                   *** authors:          - Stefan Knecht                             ***
                   ***                   - Trond Saue                                ***
                   *** contributors:     - Hans Joergen Aagaard Jensen               ***
                   ***                   - Michal Repisky                            ***
                   ***                   - Miroslav Ilias                            ***
                   *** features:         - X2C                                       ***
                   ***                   - X2C-atomic/fragment (X2C-LU)              ***
                   ***                   - X2C-spinfree                              ***
                   ***                   - X2C-molecular-mean-field (X2Cmmf)         ***
                   ***                                                               ***
                   ***                      Universities of                          ***
                   ***     Zuerich, Toulouse, Odense, Banska Bystrica and Tromsoe    ***
                   ***                                                               ***
                   *** contact: stefan.knecht@phys.chem.ethz.ch                      ***
                   *********************************************************************


                   *** chosen path in X2C module: molecular X2C (with spin-orbit contributions)      


                                Output from MODHAM
                                ------------------

 * Applied strict kinetic balance !
 * Applied SL-regrouping on AO2MO tranf.matrix in SLSORT.


                                Output from AMFIIN
                                ------------------


  *** number of unique nuclei (from file MNF.INP): 2

  *** calculate AMFI for atom type 1 with atomic charge     8
  *** number of nuclei with identical atom type:   1
   unique nuclei index: 1
  *** file with AMFI integrals for this center: AOPROPER_MNF.8.1    


                         ATOMIC NO-PAIR SO-MF CODE starts
                         --------------------------------

   Douglas-Kroll type operators 
  charge on the calculated atom:  0
  Mean-field summation for electrons #:   8
    ...electronic occupation of  O: [He]2s^2 2p^4             
 ****  Written to the file TOSCF for "relscf" ****
        charge:  8.000
      nprimit:  18 10  5  3
   closed sh.:   2  0  0  0
     open sh.:   0  4  0  0


                       *** PROGRAM AT34 - ALLIANT - @V ***
                       -----------------------------------


      SYMMETRY SPECIES            S       P       D       F
      NUMBER OF BASIS FUNCTIONS: 18      10       5       3
      NUMBER OF CLOSED SHELLS  :  2       0       0       0
      OPEN SHELL OCCUPATION    :  0       4       0       0
  ### SCF ITERATIONS           ###
  ### NON-RELATIVISTIC APPROX. ###
    1. iteration,  total energy:             0.000000000000
    2. iteration,  total energy:           -50.204030166986
    3. iteration,  total energy:           -72.081647853215
    4. iteration,  total energy:           -74.079991157610
    5. iteration,  total energy:           -74.707354257920
    6. iteration,  total energy:           -74.800592435987
    7. iteration,  total energy:           -74.808694459124
    8. iteration,  total energy:           -74.809334985365
    9. iteration,  total energy:           -74.809379069889
   10. iteration,  total energy:           -74.809387146791
   11. iteration,  total energy:           -74.809387866418
   12. iteration,  total energy:           -74.809387861701
   13. iteration,  total energy:           -74.809387870987
   14. iteration,  total energy:           -74.809387866549
   15. iteration,  total energy:           -74.809387864311
   15. iteration,  total energy:           -74.809387864208
  ### NON-RELATIVISTIC APPROX. ###
        15      -0.7480938786D+02      -0.1496179375D+03       0.7480854964D+02      -0.2000011205D+01
  ### SCF ITERATIONS           ###
  ### EV APPROX.               ###
    1. iteration,  total energy:           -74.857311040945
    2. iteration,  total energy:           -74.861730465060
    3. iteration,  total energy:           -74.861731785097
    4. iteration,  total energy:           -74.861731880780
    5. iteration,  total energy:           -74.861731891907
    6. iteration,  total energy:           -74.861731889064
    7. iteration,  total energy:           -74.861731889189
    8. iteration,  total energy:           -74.861731889199
    8. iteration,  total energy:           -74.861731889200
  ### EV  OPERATOR RESULT      ###
         8      -0.7486173189D+02      -0.1498353988D+03       0.7497366691D+02      -0.1998507009D+01
      *** AMFIIN: ADDING nucleus    1 with charge   8 to the BSSn Hamiltonian.

  *** calculate AMFI for atom type 2 with atomic charge     1
  *** number of nuclei with identical atom type:   2
  no 2e-SO corrections for hydrogen or hydrogen-like 1e-systems. AMFI is skipped.
   unique nuclei index: 2

       *** This (AMFI) unique nuclei is not to be calculated ! Only pass (to read input basis) through the AMFI routine.



                         ATOMIC NO-PAIR SO-MF CODE starts
                         --------------------------------

   Douglas-Kroll type operators 
  skip explicit AMFI - reading AMFI integrals from file AOPROPER_MNF.xxx!

                   *********************************************************************
                   ***               X2C transformation ended properly.              ***
                   ***          Calculation continues in two-component mode.         ***
                   *********************************************************************

 >>> CPU  time used in mk_h2c is   0.56 seconds
 >>> WALL time used in mk_h2c is   0.58 seconds


                     SYMADD: Detection of molecular symmetry
                     ---------------------------------------

 Symmetry test threshold:  5.00E-06

    The molecule has been centered at center of mass

 Symmetry point group found: C(2v)          

 The following symmetry elements were found: X  Y     


                      Nuclear contribution to dipole moments
                      --------------------------------------

                               au             Debye

                    z     -0.96812259     -2.46074497

                        1 Debye =   2.54177000 a.u. 

Total time used in ONEGEN (CPU)  0.01158900s and (WALL)  0.01400000s


                       Generating Lowdin canonical matrix:
                       -----------------------------------

   L   A1    * Deleted:         15(Proj:         15, Lindep:          0) Smin: 0.26E-03
   L   B1    * Deleted:          5(Proj:          5, Lindep:          0) Smin: 0.60E-02
   L   B2    * Deleted:          8(Proj:          8, Lindep:          0) Smin: 0.63E-03
   L   A2    * Deleted:          2(Proj:          2, Lindep:          0) Smin: 0.16E-01


      **********************************************************************
      ************************* Orbital dimensions *************************
      **********************************************************************

No. of positive energy orbitals (NESH):   177
No. of negative energy orbitals (NPSH):     0
Total no. of orbitals           (NORB):   177
 >>> CPU  time used in PAMSET is   0.70 seconds
 >>> WALL time used in PAMSET is   0.79 seconds
===========================================================================
* PCMOIN: Coefficients read from formatted DFPCMO 
          and written to unformatted DFCOEF
===========================================================================


 *******************************************************************************
 *********************** X2C relativistic HF calculation ***********************
 *******************************************************************************


########## START ITERATION NO.   1 ##########   Wed Jun 29 16:05:55 2022


* REACMO: Coefficients read from file DFCOEF - Total energy: -76.1195925850807811
* Heading :  H2O,count CC memory demand                      Wed Jun 29 16:05:55 2022

* GETGAB: label "GABAO1XX" not found; calling GABGEN.
SCR        scr.thr.    Step1    Step2  Coulomb  Exchange    CPU-time
SOfock:LL  1.00D-12    0.00%    9.87%    0.00%    0.00%   1.85959125s
 >>> CPU  time used in SO Fock is   2.02 seconds
 >>> WALL time used in SO Fock is   2.00 seconds
E_HOMO...E_LUMO, symmetry 1:                                  5  -0.51081    6   0.06767
It.    1    -76.11959259140      7.61D+01  0.00D+00  1.07D-07               2.03836000s   LL             Wed Jun 29

########## START ITERATION NO.   2 ##########   Wed Jun 29 16:05:57 2022

SCR        scr.thr.    Step1    Step2  Coulomb  Exchange    CPU-time
SOfock:LL  1.00D-12    0.00%    9.87%    0.00%    0.00%   1.71766520s
 >>> CPU  time used in SO Fock is   1.72 seconds
 >>> WALL time used in SO Fock is   1.71 seconds
>>> Total wall time:  1.73000000s, and total CPU time :  1.72603400s

########## END ITERATION NO.   2 ##########   Wed Jun 29 16:05:59 2022

It.    2    -76.11959258575     -5.65D-09  1.75D-08  3.63D-08               1.73000000s   LL             Wed Jun 29


                                   SCF - CYCLE
                                   -----------

* Convergence on norm of error vector (gradient).
  Desired convergence:1.000D-07
  Allowed convergence:1.000D-06

* ERGVAL - convergence in total energy
* FCKVAL - convergence in maximum change in total Fock matrix
* EVCVAL - convergence in error vector (gradient)
--------------------------------------------------------------------------------------------------------------------------------
           Energy               ERGVAL    FCKVAL    EVCVAL      Conv.acc    CPU          Integrals   Time stamp
--------------------------------------------------------------------------------------------------------------------------------
It.    1    -76.11959259140      7.61D+01  0.00D+00  1.07D-07               2.03836000s   LL             Wed Jun 29
It.    2    -76.11959258575     -5.65D-09  1.75D-08  3.63D-08               1.73000000s   LL             Wed Jun 29
--------------------------------------------------------------------------------------------------------------------------------
* Convergence after    2 iterations.
* Average elapsed time per iteration: 
      LL           :    1.89200000s


                                   TOTAL ENERGY
                                   ------------

   Charge of molecule : 0

   Electronic energy                        :    -85.384296323304426

   Other contributions to the total energy
   Nuclear repulsion energy                 :      9.264703737555520

   Sum of all contributions to the energy
   Total energy                             :    -76.119592585748904


                                   Eigenvalues
                                   -----------


* Fermion symmetry E1 
  * Closed shell, f = 1.0000
    -20.5776425745  ( 2)        -1.3578504384  ( 2)        -0.7213120760  ( 2)        -0.5861571776  ( 2)        -0.5108095414  ( 2)
  * Virtual eigenvalues, f = 0.0000
      0.0676670773  ( 2)         0.1050088108  ( 2)         0.2485847668  ( 2)         0.2668132827  ( 2)         0.2869768431  ( 2)
      0.3041521654  ( 2)         0.3884728314  ( 2)         0.4742069568  ( 2)         0.5172485507  ( 2)         0.5331463334  ( 2)
      0.5518341292  ( 2)         0.6655463643  ( 2)         0.6898773339  ( 2)         0.7231092565  ( 2)         0.8041192017  ( 2)
      0.8128953621  ( 2)         1.0241957079  ( 2)         1.0497645779  ( 2)         1.1219914677  ( 2)         1.3513892795  ( 2)
      1.4500006458  ( 2)         1.4571536463  ( 2)         1.5933645667  ( 2)         1.6001545523  ( 2)         1.6011305666  ( 2)
      1.6671020721  ( 2)         1.6688736837  ( 2)         1.7252758337  ( 2)         1.7462625616  ( 2)         1.7630942169  ( 2)
      1.7915259545  ( 2)         1.8559565997  ( 2)         1.8976783329  ( 2)         1.9336618125  ( 2)         1.9731521484  ( 2)
      2.2313136910  ( 2)         2.2327965907  ( 2)         2.4696655360  ( 2)         2.5032544159  ( 2)         2.5979798708  ( 2)
      2.7575713601  ( 2)         3.0480802332  ( 2)         3.1825952933  ( 2)         3.2376061254  ( 2)         3.3082133349  ( 2)
      3.3475863506  ( 2)         3.7323327661  ( 2)         4.0447047587  ( 2)         4.1643301002  ( 2)         4.2340941940  ( 2)
      4.2820561965  ( 2)         4.2840323088  ( 2)         4.3582153400  ( 2)         4.3836651570  ( 2)         4.4082160598  ( 2)
      4.4955347135  ( 2)         4.5456963050  ( 2)         4.6063724967  ( 2)         4.7796830043  ( 2)         4.8155624323  ( 2)
      4.8841768966  ( 2)         4.9276311719  ( 2)         5.1087683600  ( 2)         5.2092991225  ( 2)         5.2534762472  ( 2)
      5.5100427613  ( 2)         5.5261541616  ( 2)         5.6015138914  ( 2)         5.6326408246  ( 2)         5.6507842148  ( 2)
      5.7783736043  ( 2)         5.8078723274  ( 2)         5.8564759911  ( 2)         6.3440908182  ( 2)         6.4939313887  ( 2)
      6.6191602826  ( 2)         6.6282810621  ( 2)         6.8921065030  ( 2)         6.8997770439  ( 2)         7.0904088624  ( 2)
      7.2177488604  ( 2)         7.3707417811  ( 2)         7.4160052776  ( 2)         7.7346305666  ( 2)         7.9240521951  ( 2)
      8.1020531613  ( 2)         8.5311513289  ( 2)         8.5503028841  ( 2)         8.6182806892  ( 2)         8.6431731301  ( 2)
      8.9853176297  ( 2)         8.9904596573  ( 2)         9.7229395290  ( 2)        10.0052909843  ( 2)        10.1407151566  ( 2)
     10.2992903140  ( 2)        10.5575587691  ( 2)        10.6231250427  ( 2)        11.0541792523  ( 2)        11.1936020464  ( 2)
     11.3873187407  ( 2)        11.5193772715  ( 2)        11.5317114216  ( 2)        11.7323220304  ( 2)        11.7973813815  ( 2)
     11.8319674045  ( 2)        11.9500025257  ( 2)        12.3090348152  ( 2)        12.3411101620  ( 2)        12.9327373740  ( 2)
     13.1671022134  ( 2)        13.6084032785  ( 2)        13.9788590305  ( 2)        14.3021959926  ( 2)        14.3984357214  ( 2)
     15.3135524775  ( 2)        15.9429719402  ( 2)        16.3897523948  ( 2)        18.6043533441  ( 2)        19.2220990513  ( 2)
     19.6726766762  ( 2)        34.3313138151  ( 2)        34.4624806256  ( 2)        36.0090189090  ( 2)        47.2848914807  ( 2)
     47.5762262514  ( 2)        47.7996812133  ( 2)        68.8003132527  ( 2)        68.9050504437  ( 2)        68.9654890059  ( 2)
     69.3538128305  ( 2)        69.7395588970  ( 2)        85.3951083377  ( 2)       102.6607461652  ( 2)       102.7632260385  ( 2)
    129.3595036254  ( 2)       129.6345271447  ( 2)       129.8482949532  ( 2)       198.5650688464  ( 2)       202.1123271532  ( 2)
    202.1219543633  ( 2)       202.1264708182  ( 2)       202.2244378686  ( 2)       202.2291689750  ( 2)       202.2391341007  ( 2)
    202.2458363460  ( 2)       293.9093184741  ( 2)       294.0445071348  ( 2)       294.2310090426  ( 2)       294.4003115456  ( 2)
    294.6147827458  ( 2)       346.2951538948  ( 2)       346.3907187311  ( 2)       397.1273170645  ( 2)       397.8997040201  ( 2)
    398.1094825496  ( 2)       459.5938237936  ( 2)      1070.7586112835  ( 2)      1388.0465847046  ( 2)      1388.1280677003  ( 2)
   1539.4396823231  ( 2)      1547.9978043349  ( 2)      1548.1455067808  ( 2)      2518.6728657025  ( 2)      5928.9037903835  ( 2)
   7189.4731597354  ( 2)      7189.5257859835  ( 2)     13701.2417164413  ( 2)     30702.3216359968  ( 2)     67842.7452839013  ( 2)
 155980.4448500350  ( 2)    420059.7852444011  ( 2)
* HOMO - LUMO gap:

    E(LUMO) :     0.06766708 au (symmetry E1 )
  - E(HOMO) :    -0.51080954 au (symmetry E1 )
  ------------------------------------------
    gap     :     0.57847662 au



    **************************************************************************
    **************** Transformation to Molecular Spinor Basis ****************
    **************************************************************************


          Written by Luuk Visscher, Jon Laerdahl & Trond Saue
          Odense, 1997




     ************************************************************************
     **************** Transformation of 2-electron integrals ****************
     ************************************************************************


 Transformation started at : Wed Jun 29 16:05:59 2022

* REACMO: Coefficients read from file DFCOEF - Total energy: -76.1195925914007034
* Heading :  H2O,count CC memory demand                      Wed Jun 29 16:05:57 2022
     Energy selection of active orbitals :      -10.00 < Eps. <        50.00 with a mininum gap of     0.0200 au.
     Energy selection of active orbitals :      -10.00 < Eps. <        50.00 with a mininum gap of     0.0200 au.
     Energy selection of active orbitals :      -10.00 < Eps. <        50.00 with a mininum gap of     0.0200 au.
     Energy selection of active orbitals :      -10.00 < Eps. <        50.00 with a mininum gap of     0.0200 au.

* Orbital ranges for 4-index transformation:


 * Fermion ircop E1 

      Index 1  131 orbitals
          2    3    4    5    6    7    8    9   10   11   12   13
         14   15   16   17   18   19   20   21   22   23   24   25
         26   27   28   29   30   31   32   33   34   35   36   37
         38   39   40   41   42   43   44   45   46   47   48   49
         50   51   52   53   54   55   56   57   58   59   60   61
         62   63   64   65   66   67   68   69   70   71   72   73
         74   75   76   77   78   79   80   81   82   83   84   85
         86   87   88   89   90   91   92   93   94   95   96   97
         98   99  100  101  102  103  104  105  106  107  108  109
        110  111  112  113  114  115  116  117  118  119  120  121
        122  123  124  125  126  127  128  129  130  131  132

      Index 2  131 orbitals
          2    3    4    5    6    7    8    9   10   11   12   13
         14   15   16   17   18   19   20   21   22   23   24   25
         26   27   28   29   30   31   32   33   34   35   36   37
         38   39   40   41   42   43   44   45   46   47   48   49
         50   51   52   53   54   55   56   57   58   59   60   61
         62   63   64   65   66   67   68   69   70   71   72   73
         74   75   76   77   78   79   80   81   82   83   84   85
         86   87   88   89   90   91   92   93   94   95   96   97
         98   99  100  101  102  103  104  105  106  107  108  109
        110  111  112  113  114  115  116  117  118  119  120  121
        122  123  124  125  126  127  128  129  130  131  132

      Index 3  131 orbitals
          2    3    4    5    6    7    8    9   10   11   12   13
         14   15   16   17   18   19   20   21   22   23   24   25
         26   27   28   29   30   31   32   33   34   35   36   37
         38   39   40   41   42   43   44   45   46   47   48   49
         50   51   52   53   54   55   56   57   58   59   60   61
         62   63   64   65   66   67   68   69   70   71   72   73
         74   75   76   77   78   79   80   81   82   83   84   85
         86   87   88   89   90   91   92   93   94   95   96   97
         98   99  100  101  102  103  104  105  106  107  108  109
        110  111  112  113  114  115  116  117  118  119  120  121
        122  123  124  125  126  127  128  129  130  131  132

      Index 4  131 orbitals
          2    3    4    5    6    7    8    9   10   11   12   13
         14   15   16   17   18   19   20   21   22   23   24   25
         26   27   28   29   30   31   32   33   34   35   36   37
         38   39   40   41   42   43   44   45   46   47   48   49
         50   51   52   53   54   55   56   57   58   59   60   61
         62   63   64   65   66   67   68   69   70   71   72   73
         74   75   76   77   78   79   80   81   82   83   84   85
         86   87   88   89   90   91   92   93   94   95   96   97
         98   99  100  101  102  103  104  105  106  107  108  109
        110  111  112  113  114  115  116  117  118  119  120  121
        122  123  124  125  126  127  128  129  130  131  132

 (PAMTRA)  Orbitals read from DFCOEF

* Core orbital ranges for 2-index transformation:


 * Fermion ircop E1 

      Index 1    1 orbitals
          1


    **************************************************************************
    **************** Transformation to Molecular Spinor Basis ****************
    **************************************************************************


          Written by Luuk Visscher, Jon Laerdahl & Trond Saue
          Odense, 1997




      **********************************************************************
      **************** Transformation of property integrals ****************
      **********************************************************************


 Transformation started at : Wed Jun 29 16:05:59 2022

* REACMO: Coefficients read from file DFCOEF - Total energy: -76.1195925914007034
* Heading :  H2O,count CC memory demand                      Wed Jun 29 16:05:57 2022
     Energy selection of active orbitals :      -10.00 < Eps. <        50.00 with a mininum gap of     0.0200 au.
     Energy selection of active orbitals :      -10.00 < Eps. <        50.00 with a mininum gap of     0.0200 au.


 * Fermion ircop E1 

      Index 1  131 orbitals
          2    3    4    5    6    7    8    9   10   11   12   13
         14   15   16   17   18   19   20   21   22   23   24   25
         26   27   28   29   30   31   32   33   34   35   36   37
         38   39   40   41   42   43   44   45   46   47   48   49
         50   51   52   53   54   55   56   57   58   59   60   61
         62   63   64   65   66   67   68   69   70   71   72   73
         74   75   76   77   78   79   80   81   82   83   84   85
         86   87   88   89   90   91   92   93   94   95   96   97
         98   99  100  101  102  103  104  105  106  107  108  109
        110  111  112  113  114  115  116  117  118  119  120  121
        122  123  124  125  126  127  128  129  130  131  132

      Index 2  131 orbitals
          2    3    4    5    6    7    8    9   10   11   12   13
         14   15   16   17   18   19   20   21   22   23   24   25
         26   27   28   29   30   31   32   33   34   35   36   37
         38   39   40   41   42   43   44   45   46   47   48   49
         50   51   52   53   54   55   56   57   58   59   60   61
         62   63   64   65   66   67   68   69   70   71   72   73
         74   75   76   77   78   79   80   81   82   83   84   85
         86   87   88   89   90   91   92   93   94   95   96   97
         98   99  100  101  102  103  104  105  106  107  108  109
        110  111  112  113  114  115  116  117  118  119  120  121
        122  123  124  125  126  127  128  129  130  131  132


    **************************************************************************
    **************** Transformation to Molecular Spinor Basis ****************
    **************************************************************************


          Written by Luuk Visscher, Jon Laerdahl & Trond Saue
          Odense, 1997




       ********************************************************************
       **************** Transformation of core Fock matrix ****************
       ********************************************************************


 Transformation started at : Wed Jun 29 16:05:59 2022

* REACMO: Coefficients read from file DFCOEF - Total energy: -76.1195925914007034
* Heading :  H2O,count CC memory demand                      Wed Jun 29 16:05:57 2022
SCR        scr.thr.    Step1    Step2  Coulomb  Exchange    CPU-time
SOfock:LL  1.00D-12    0.00%   28.47%    0.00%    0.00%   1.82401943s
 >>> CPU  time used in SO Fock is   1.83 seconds
 >>> WALL time used in SO Fock is   1.81 seconds

* REAFCK: Fock matrix read from file DFFCK1                                                      
* Heading :  H2O,count CC memory demand                      Wed Jun 29 16:05:55 2022


 Core energy (includes nuclear repulsion) :            -52.1158622613
 - Electronic part :                                   -61.3805659989
   - One-electron terms :                              -66.1283113678
   - Two-electron terms :                                4.7477453689


 MOLFDIR file MRCONEE is written


 Total wall time used in PAMTRA :   00:00:02
 Total CPU  time used in PAMTRA (master only) :   00:00:02

 Transformation ended at : Wed Jun 29 16:06:01 2022


---< Process     1 of     1----<



 Relativistic Coupled Cluster program RELCCSD

 Written by :
    Lucas Visscher

    NASA Ames Research Center    (1994)
    Rijks Universiteit Groningen (1995)
    Odense Universitet           (1996-1997)
    VU University Amsterdam      (1998-present)


 This module is documented in
  - Initial implementation : L. Visscher, T.J. Lee and K.G. Dyall, J. Chem. Phys. 105 (1996) 8769.
  - Fock Space (FSCC)      : L. Visscher, E. Eliav and U. Kaldor, J. Chem. Phys. 115 (2002) 9720.
  - Parallelization        : M. Pernpointner and L. Visscher, J. Comp. Chem. 24 (2003) 754.
  - Intermediate Hamilt. FS: E. Eliav, M. J. Vilkas, Y. Ishikawa, and U. Kaldor, J. Chem. Phys. 122 (2005) 224113.
  - MP2 expectation values : J.N.P. van Stralen, L. Visscher, C.V. Larsen and H.J.Aa. Jensen," Chem. Phys. 311 (2005) 81.
  - CC  expectation values : A. Shee, L. Visscher, and T. Saue, J. Chem. Phys. 145 (2016) 184107.
  - EOM-IP/EA/EE energies  : A. Shee, T. Saue, L. Visscher, and A.S.P. Gomes, J. Chem. Phys. 149 (2018) 174113.
  - Core spectra (CVS-EOM) : L. Halbert, M. L. Vidal, A. Shee, S. Coriani, and A.S.P. Gomes, arXiv:2011.08549


 Today is :    29 Jun 22
 The time is :  16:06:01

 Initializing word-addressable I/O : the FORTRAN-interface is used with    16 KB records
===========================================================================
 **RELCC: Set-up for Coupled Cluster calculations
===========================================================================
 * General print level   :   0

 Total memory available :         488.28 MB    0.477 GB

 INFO: No old restart file(s) found!


 Configuration in highest pointgroup

                                           E    E
 Spinor class : occupied                   4    4
 Spinor class : virtual                  127  127

 Configuration in abelian subgroup

                                          1E   2E
 Spinor class : occupied                   4    4
 Spinor class : virtual                  127  127


 Number of electrons :                     8
 Total charge of the system :              0
 Number of virtual spinors :             254
 Complex arithmetic mode :                 F
 Do integral sorting     :                 T
 Do energy calculation   :                 T
 Do gradient calculation :                 F
 Do response calculation :                 F
 Debug information       :                 F
 Timing information      :                 F
 Print level          :                    0
 Memory limit (MWord) :                        61
 Interface used       :                DIRAC6    


 Leave after calculating the total memory demand :          T
 Memory for reading and sorting integrals :             58108224 8-byte words
 Core used for calculating amplitudes :                 58319504 8-byte words
 Core used for in core evaluation of triples :          48682560 8-byte words
 Memory used for active modules :                       58319504 8-byte words

 Predicted RelCC memory demand:          444.94 MB
 Predicted RelCC memory demand:           0.435 GB

------ Timing report (in CPU seconds) of module  RELCCSD                      


------ End of timing report ------



 Timing of main modules :         Wallclock (s)       CPU on master (s)
 Before CC driver :            1621748.98                     8.59
 Initialization :                    0.12                     0.12
 Integral sorting :                  0.00                     0.00
 Energy calculation :                0.00                     0.00
 First order properties :            0.00                     0.00
 Second order properties :           0.00                     0.00
 Fock space energies :               0.00                     0.00
 EOMCC energies :                    0.00                     0.00
 Untimed parts :                     0.00                     0.00
 Total time in CC driver :             0.                     0.12

 Statistics for the word-addressable I/O
 Number of write calls                                   0.
 Number of read calls                                    0.
 Megabytes written                                    0.000
 Megabytes read                                       0.000
 Seconds spent in reads                               0.000
 Seconds spent in writes                              0.000
 average I/O speed for write (Mb/s)                   0.000
 average I/O speed for read  (Mb/s)                   0.000


 CPU time (seconds) used in RELCCSD:                     0.1225
 CPU time (seconds) used before RELCCSD:                 8.5896
 CPU time (seconds) used in total sofar:                 8.7121

  --- Normal end of RELCCSD Run ---


################################################################################

 * Closing HDF5 checkpoint file 
    - DIRAC was compiled without hdf5, checkpointing was not possible

*****************************************************
********** E N D   of   D I R A C  output  **********
*****************************************************


 
     Date and time (Linux)  : Wed Jun 29 16:06:01 2022
     Host name              : fe-ac-02.escience.sdu.dk                

>>>> Node 0, utime: 6, stime: 2, minflt: 15709, majflt: 0, nvcsw: 2372, nivcsw: 3475, maxrss: 259976
>>>> Total WALL time used in DIRAC: 7s
  
  Dynamical Memory Usage Summary for Master
  
  Mean allocation size (Mb) :        37.05
  
  Largest          10  allocations
  
      390.05 Mb at subroutine __allocator_track_if_MOD_allocator_registe for buf3                                      
      249.06 Mb at subroutine __allocator_track_if_MOD_allocator_registe for vvvo                                      
      244.14 Mb at subroutine __allocator_track_if_MOD_allocator_registe for WORK in PAMTRA                            
      244.14 Mb at subroutine __allocator_track_if_MOD_allocator_registe for WORK in PSISCF                            
      244.14 Mb at subroutine __allocator_track_if_MOD_allocator_registe for WORK in PAMSET - 2                        
      244.14 Mb at subroutine __allocator_track_if_MOD_allocator_registe for WORK in GMOTRA - part 2                   
      244.14 Mb at subroutine __allocator_track_if_MOD_allocator_registe for WORK in GMOTRA                            
      244.14 Mb at subroutine __allocator_track_if_MOD_allocator_registe for WORK in PAMSET - 1                        
      244.14 Mb at subroutine __allocator_track_if_MOD_allocator_registe for test allocation of work array in DIRAC mai
      202.17 Mb at subroutine __allocator_track_if_MOD_allocator_registe for vta                                       
  
  Peak memory usage:       444.94 MB
  Peak memory usage:        0.435 GB
       reached at subroutine : __allocator_track_if_MOD_allocator_registe
              for variable   : buf3                                      
  
 MEMGET high-water mark:     0.00 MB

*****************************************************
DIRAC pam run in /gpfs/ess1/work/sdujk/hjj/progs/gitDirac/build_master_i4/test/count_cc_memory
