**DIRAC
.WAVE FUNC
.ANALYZE
#.INPTES
**INTEGRALS
*READIN
.UNCONT
*TWOINT
.SCREEN
1.0D-16
**HAMILTONIAN
.DFTAUTO
PBE
**WAVE FUN
.SCF
*SCF
.CLOSED SHELL
98
**ANALYZE
.MULPOP
*MULPOP
.LABEL
SHELL
**MOLECULE
*BASIS
.DEFAULT
 cc-pVTZ
.SPECIAL
 Lu BASIS dyall.v3z
**END OF
