element 113 - j-optimized DZ basis
1 19 1
1s
2s
2p
3s
3p
3d
4s
4p
4d
4f
5s
5p
5d
5f
6s
6p
6d
7s 2
7p 1
ANG 7
-1
MCP 8 9
MCDF 11
9 0 0 0 10
113 287.0
NUC 3
SCF NITIT=6 CON=1.0E0
GAUSS 4 CONTROL
CONTROL CNVVEC 6.3 CNVENG 12
1s  26
2p- 26 1s 1 26
2p  22
3d- 22 2p 1 22
3d  15
4f- 15 3d 1 15
4f  10
5.410555451E+07   1.477674220E+07   5.046760516E+06   1.881036246E+06
7.519670234E+05   3.121717712E+05   1.337537787E+05   5.861701238E+04
2.623376918E+04   1.196778403E+04   5.565613895E+03   2.641110608E+03
1.279308333E+03   6.350605841E+02   3.229251397E+02   1.668148069E+02
8.855127743E+01   4.626843234E+01   2.491302232E+01   1.332236224E+01
7.050429402E+00   3.566653213E+00   1.746480412E+00   8.012456416E-01
2.363147173E-01   8.211626183E-02
1.832973111E+06   3.677410004E+05   1.042558311E+05   3.551995083E+04
1.365628428E+04   5.729961829E+03   2.571176326E+03   1.216215930E+03
6.003294614E+02   3.061461712E+02   1.601715602E+02   8.574943752E+01
4.600764505E+01   2.487057706E+01   1.355724873E+01   7.189512031E+00
3.709687491E+00   1.753488637E+00   8.174464605E-01   3.431291818E-01
1.196202297E-01   3.605428667E-02
1.438935404E+04   4.111888007E+03   1.542160218E+03   6.637471705E+02
3.111800230E+02   1.538758849E+02   7.883962728E+01   4.095259646E+01
2.148494432E+01   1.119186568E+01   5.692583697E+00   2.791037755E+00
1.265293623E+00   5.247952224E-01   1.904499576E-01
1.250294088E+03   4.300054627E+02   1.834372720E+02   8.629363698E+01
4.258654175E+01   2.151568823E+01   1.081918963E+01   5.287539266E+00
2.459405736E+00   1.015550465E+00
AL
END
