Bi atom - TZ basis
 1 15 1
 1s
 2s
 2p
 3s
 3p
 3d
 4s
 4p
 4d
 4f
 5s
 5p
 5d
 6s
 6p 3
 ANG 1 7
 -1
 MCP 1 2
 MCDF 24
 2 0 3 0 14
 83 209.0
 NUC 3
 GAUSS 4
 1S  30
 2P- 25
 2P  25 2P- 1 25
 3D- 17
 3D  17 3D- 1 17
 4F- 11
 4F  11 4F- 1 11
  6.0311989E+07
  1.6051490E+07
  5.4946022E+06
  2.0921783E+06
  8.7228608E+05
  3.8455448E+05
  1.7769146E+05
  8.4842022E+04
  4.1639260E+04
  2.0888520E+04
  1.0685288E+04
  5.5616491E+03
  2.9418744E+03
  1.5792819E+03
  8.5880021E+02
  4.7160384E+02
  2.6367206E+02
  1.4960897E+02
  8.5864339E+01
  4.9330236E+01
  2.9084112E+01
  1.7004392E+01
  9.4518823E+00
  5.3907940E+00
  2.9254412E+00
  1.5767178E+00
  8.2262394E-01
  3.3654907E-01
  1.5552971E-01
  6.7994583E-02
  4.5716312E+07
  1.2020013E+07
  3.5338508E+06
  1.1328857E+06
  3.8880908E+05
  1.4139323E+05
  5.4175877E+04
  2.1825254E+04
  9.2485101E+03
  4.1227683E+03
  1.9285313E+03
  9.4167499E+02
  4.7644513E+02
  2.4829591E+02
  1.3204380E+02
  7.0732928E+01
  3.8843957E+01
  2.1268489E+01
  1.1356211E+01
  6.0893913E+00
  3.1150062E+00
  1.5809224E+00
  7.6275107E-01
  2.9950363E-01
  1.2171302E-01
  3.6056471E+04
  8.7942690E+03
  2.9773896E+03
  1.2026340E+03
  5.4320948E+02
  2.6392698E+02
  1.3504708E+02
  7.1319062E+01
  3.8578165E+01
  2.0919821E+01
  1.1151610E+01
  5.9122803E+00
  3.0430319E+00
  1.5135542E+00
  7.2243078E-01
  3.2503953E-01
  1.2657989E-01
  1.0703029E+03
  3.6323880E+02
  1.5446734E+02
  7.3368355E+01
  3.6869724E+01
  1.9107106E+01
  9.8894189E+00
  5.0068176E+00
  2.3615820E+00
  8.9551709E-01
  2.7862580E-01
 AL
 END
