**DIRAC
.TITLE
 Parity-violation contribution to spin-rotation
.WAVE FUNCTION
.PROPERTIES
**HAMILTONIAN
.URKBAL
**INTEGRALS
.SELECT
 1
 3
*READIN
.UNCONTRACT
**WAVE FUNCTIONS
.SCF
*SCF
.EVCCNV
1.0E-7
**PROPERTIES
.PVCSR
.PRINT
2
*LINEAR RESPONSE
.THRESH
1.0D-7
*END OF
