**DIRAC
.WAVE FUNCTION
**GENERAL
.ACMOUT
**HAMILTONIAN
.SPINFREE
.DFT
B3LYP
**WAVE FUNCTION
.SCF
*SCF
.CLOSED SHELL
12 10
**MOLECULE
*CENTERS
.NUCLEUS
 O1 8.0
.NUCLEUS
 O2 8.0
*BASIS
.DEFAULT
dyall.2zp
**END OF
