**DIRAC
.WAVE FUNCTION
**HAMILTONIAN
.SPINFREE
.DFT
B3LYP
**WAVE FUNCTION
.SCF
*SCF
.CLOSED SHELL
22
.MAXITR
0
**MOLECULE
*SYMMETRY
.NOSYM
*CENTERS
.NUCLEUS
 O1 8.0
.NUCLEUS
 O2 8.0
*BASIS
.DEFAULT
dyall.2zp
**END OF

