**DIRAC
.TITLE
  test system                        
.WAVE F
**GENERAL
#.DOJACO
#.QJACO
**HAMILTONIAN
.PRINT
0
.JZOUT
.ONESYS
**WAVE FUNCTIONS
.SCF
#.RESOLVE
*SCF
.CLOSED SHELL
 6 8
.OPEN SHELL
1
2/4,0
.PRINT
1
.MAXITR
1
.FOMOUT
.NOBNCR
*END OF
