**DIRAC
.WAVE FUNCTION
.ANALYZE
**GENERAL
.ACMOUT
**HAMILTONIAN
.DFTAUTO
 PBE0
**INTEGRALS
*READIN
.UNCONTRACT
**WAVE FUNCTIONS
.SCF
*SCF
.CLOSED SHELL
 42 44
.OPEN SHELL
 1
 3/0,14
**ANALYZE
.MULPOP
*MULPOP
.VECPOP
 1..oo
 1..oo
*END OF
