**DIRAC
.TITLE
qcorr step 1 - GASSCF
.WAVE FUNCTION
**INTEGRALS
*READIN
.UNCONTRACTED
**HAMILTONIAN
.DOSSSS
.X2C
**WAVE FUNCTION
.SCF
.KRMCSCF
*SCF
.CLOSED SHELL
10
*KRMCSCF
.CI PROGRAM
LUCIAREL
.INACTIVE
3
.GAS SHELLS
1
4 4 / 4
.SYMMETRY
1
.THRESH
1.0d-04
**MOLECULE
*BASIS
.DEFAULT
cc-pVDZ
**END OF
